…
* Examine the data. Some questions you should be able to answer after examining the data are:
    - How many individuals are in the study? 
    - How many conditions? 
    - How many observations did each individual contribute per condition?


```r
politeness_data
```

```
## # A tibble: 80 x 6
##    subject gender scenario attitude total_duration frequency
##    <chr>   <chr>     <dbl> <chr>             <dbl>     <dbl>
##  1 F1      F             1 pol               18.4       215.
##  2 F1      F             1 inf               13.6       211.
##  3 F1      F             2 pol                5.22      285.
##  4 F1      F             2 inf                4.25      266.
##  5 F1      F             3 pol                6.79      211.
##  6 F1      F             3 inf                4.13      286.
##  7 F1      F             4 pol                6.24      252.
##  8 F1      F             4 inf                3.24      282.
##  9 F1      F             5 pol                5.62      230.
## 10 F1      F             5 inf                3.95      250.
## # ... with 70 more rows
```
…
