…
We would like to see what the data looks like now that it has been read into R. You can
just type the name of the dataset.


~~~
pattani
~~~
{: .language-r}



~~~
# A tibble: 434 x 8
      ID `blood lead`   age gender school   duration water `ln(blood lead)`
   <dbl>        <dbl> <dbl> <chr>  <chr>       <dbl> <chr>            <dbl>
 1     1         11.7    13 Boy    Tangkad~       13 Boil              2.46
 2     2         11.8    13 Boy    Tangkad~        5 Boil              2.47
 3     3          6.4    13 Girl   Tangkad~       13 Stand             1.86
 4     4          6.9    11 Girl   Tangkad~       11 Boil              1.93
 5     5         10.3    13 Girl   Tangkad~        5 Boil              2.33
 6     6          8.3    13 Girl   Tangkad~       13 Filt~             2.12
 7     7          6.2    13 Girl   Tangkad~        5 Filt~             1.82
 8     8          9.4    13 Boy    Tangkad~       13 Stand             2.24
 9     9         14.9    11 Boy    Tangkad~       11 Boil              2.70
10    10          8.1    11 Girl   Tangkad~       11 Filt~             2.09
# ... with 424 more rows
…
