…
We should check if the model fit well. To do this we will need to get some of the parameters
from the fitted model. The `augment` function in the `broom` package helps with this.


~~~
gender_aov_augment <- broom::augment(gender_aov, pattani)
gender_aov_augment
~~~
{: .language-r}



~~~
# A tibble: 433 x 15
      ID blood_lead   age gender school duration water ln_blood_lead
   <dbl>      <dbl> <dbl> <fct>  <fct>     <dbl> <fct>         <dbl>
 1     1       11.7    13 Boy    Tangk~       13 Boil           2.46
 2     2       11.8    13 Boy    Tangk~        5 Boil           2.47
 3     3        6.4    13 Girl   Tangk~       13 Stand          1.86
 4     4        6.9    11 Girl   Tangk~       11 Boil           1.93
 5     5       10.3    13 Girl   Tangk~        5 Boil           2.33
 6     6        8.3    13 Girl   Tangk~       13 Filt~          2.12
 7     7        6.2    13 Girl   Tangk~        5 Filt~          1.82
 8     8        9.4    13 Boy    Tangk~       13 Stand          2.24
 9     9       14.9    11 Boy    Tangk~       11 Boil           2.70
10    10        8.1    11 Girl   Tangk~       11 Filt~          2.09
# ... with 423 more rows, and 7 more variables: .fitted <dbl>,
#   .se.fit <dbl>, .resid <dbl>, .hat <dbl>, .sigma <dbl>, .cooksd <dbl>,
#   .std.resid <dbl>
…
