…
~~~
heat_flux
~~~
{: .language-r}



~~~
# A tibble: 29 x 6
   HeatFlux Insulation  East South North  Time
      <dbl>      <dbl> <dbl> <dbl> <dbl> <dbl>
 1     272.       783.  33.5  40.6  16.7  13.2
 2     264        748.  36.5  36.2  16.5  14.1
 3     239.       684.  34.7  37.3  17.7  15.7
 4     231.       828.  33.1  32.5  17.5  10.5
 5     252.       860.  35.8  33.7  16.4  11  
 6     258.       875.  34.5  34.1  16.3  11.3
 7     264.       909.  34.6  34.8  16.1  12.0
 8     266.       906.  35.4  35.9  15.9  12.6
 9     229.       756   35.8  33.5  16.6  10.7
10     239.       769.  35.7  33.8  16.4  10.8
# ... with 19 more rows
…
Before doing this we should first obtain a matrix scatter plot of the data.


~~~
library(tidyverse)
library(ggpubr)
squid<-read_csv(file.path("..", "Data", "Squid.csv"))
squid
~~~
{: .language-r}



~~~
# A tibble: 22 x 6
       Y    X1    X2    X3    X4    X5
   <dbl> <dbl> <dbl> <dbl> <dbl> <dbl>
 1  1.95  1.31  1.07  0.44 0.75  0.35 
 2  2.9   1.55  1.49  0.53 0.9   0.47 
 3  0.72  0.99  0.84  0.34 0.570 0.32 
 4  0.81  0.99  0.83  0.34 0.54  0.27 
 5  1.09  1.05  0.9   0.36 0.64  0.3  
 6  1.22  1.09  0.93  0.42 0.61  0.31 
 7  1.02  1.08  0.9   0.4  0.51  0.31 
 8  1.93  1.27  1.08  0.44 0.77  0.34 
 9  0.64  0.99  0.85  0.36 0.56  0.290
10  2.08  1.34  1.13  0.45 0.77  0.37 
# ... with 12 more rows
…
~~~
mcg1
~~~
{: .language-r}



~~~
# A tibble: 41 x 8
     MCG Other  Temp Members Top50 Date       Home  Away 
   <dbl> <dbl> <dbl>   <dbl> <dbl> <chr>      <chr> <chr>
 1  8.65 72.9     24    12.6     5 27/03/1993 NM    Bris 
 2 49.9  60.8     21    26.0     7 3/04/1993  Ess   Carl 
 3 24.4  59.8     24    16.9     5 17/04/1993 NM    Melb 
 4 46.6   9.27    22    27.0     8 1/05/1993  Ess   Gee  
 5 29.3  74.8     17    22.9     7 8/05/1993  Rich  StK  
 6 34.4  61.9     16    51.6     8 22/05/1993 Ess   Adel 
 7 17.8  92.1     19    13.0     4 29/05/1993 Rich  Syd  
 8 37.1  23.4     13    29.9     9 12/06/1993 Carl  Gee  
 9 44.1  61.2     14    21.6     6 19/06/1993 Melb  Ess  
10 19.1  54.9     13    21.5     7 26/06/1993 Ess   Rich 
# ... with 31 more rows
…
