…
Let's look how this works with some real data. In this section we will analyse the height data collected by [Francis Galton in 1885](https://www.jstor.org/stable/2841583?seq=1#metadata_info_tab_contents). It consists of the heights (measured in inches) of the adult children from 197 families. We start by importing the data.


~~~
library(readr)
height <- read_table2("../data/Galton.tab", col_types = cols(Family = col_character()))
height
~~~
{: .language-r}



~~~
# A tibble: 898 x 6
   Family Father Mother Gender Height  Kids
   <chr>   <dbl>  <dbl> <chr>   <dbl> <dbl>
 1 1        78.5   67   M        73.2     4
 2 1        78.5   67   F        69.2     4
 3 1        78.5   67   F        69       4
 4 1        78.5   67   F        69       4
 5 2        75.5   66.5 M        73.5     4
 6 2        75.5   66.5 M        72.5     4
 7 2        75.5   66.5 F        65.5     4
 8 2        75.5   66.5 F        65.5     4
 9 3        75     64   M        71       2
10 3        75     64   F        68       2
# ... with 888 more rows
…
Let's take a look at the structure of the data:


~~~
politeness_data <- read_csv(file.path("..", "data", "politeness_data.csv"))

politeness_data
~~~
{: .language-r}



~~~
# A tibble: 80 x 6
   subject gender scenario attitude total_duration frequency
   <chr>   <chr>     <dbl> <chr>             <dbl>     <dbl>
 1 F1      F             1 pol               18.4       215.
 2 F1      F             1 inf               13.6       211.
 3 F1      F             2 pol                5.22      285.
 4 F1      F             2 inf                4.25      266.
 5 F1      F             3 pol                6.79      211.
 6 F1      F             3 inf                4.13      286.
 7 F1      F             4 pol                6.24      252.
 8 F1      F             4 inf                3.24      282.
 9 F1      F             5 pol                5.62      230.
10 F1      F             5 inf                3.95      250.
# ... with 70 more rows
…
