…
~~~
library(tidyverse)
library(ggpubr)

squid <- read_csv(file.path("..", "Data", "Squid.csv"))
squid
~~~
{: .language-r}



~~~
# A tibble: 22 x 6
       Y    X1    X2    X3    X4    X5
   <dbl> <dbl> <dbl> <dbl> <dbl> <dbl>
 1  1.95  1.31  1.07  0.44 0.75  0.35 
 2  2.9   1.55  1.49  0.53 0.9   0.47 
 3  0.72  0.99  0.84  0.34 0.570 0.32 
 4  0.81  0.99  0.83  0.34 0.54  0.27 
 5  1.09  1.05  0.9   0.36 0.64  0.3  
 6  1.22  1.09  0.93  0.42 0.61  0.31 
 7  1.02  1.08  0.9   0.4  0.51  0.31 
 8  1.93  1.27  1.08  0.44 0.77  0.34 
 9  0.64  0.99  0.85  0.36 0.56  0.290
10  2.08  1.34  1.13  0.45 0.77  0.37 
# ... with 12 more rows
…
~~~
library(tidyverse)

mcg1 <- read_csv(file.path("..", "Data", "MCG1.csv"))
mcg1
~~~
{: .language-r}



~~~
# A tibble: 41 x 8
     MCG Other  Temp Members Top50 Date       Home  Away 
   <dbl> <dbl> <dbl>   <dbl> <dbl> <chr>      <chr> <chr>
 1  8.65 72.9     24    12.6     5 27/03/1993 NM    Bris 
 2 49.9  60.8     21    26.0     7 3/04/1993  Ess   Carl 
 3 24.4  59.8     24    16.9     5 17/04/1993 NM    Melb 
 4 46.6   9.27    22    27.0     8 1/05/1993  Ess   Gee  
 5 29.3  74.8     17    22.9     7 8/05/1993  Rich  StK  
 6 34.4  61.9     16    51.6     8 22/05/1993 Ess   Adel 
 7 17.8  92.1     19    13.0     4 29/05/1993 Rich  Syd  
 8 37.1  23.4     13    29.9     9 12/06/1993 Carl  Gee  
 9 44.1  61.2     14    21.6     6 19/06/1993 Melb  Ess  
10 19.1  54.9     13    21.5     7 26/06/1993 Ess   Rich 
# ... with 31 more rows
…
**EXERCISE:** Do this for yourself. 

Now we regress $Y$ on $X$ with the males and females together:


~~~
mf <- read_csv(file.path("..", "Data", "MF.csv"))
mf
~~~
{: .language-r}



~~~
# A tibble: 102 x 3
       x       y   Sex
   <dbl>   <dbl> <dbl>
 1  1     0.0573     1
 2  1.02  0.151      1
 3  1.04 -0.235      1
 4  1.06 -0.265      1
 5  1.08 -0.0827     1
 6  1.1  -0.227      1
 7  1.12 -0.544      1
 8  1.14 -0.208      1
 9  1.16 -0.530      1
10  1.18 -0.803      1
# ... with 92 more rows
…
~~~
mass <- read_csv(file.path("..", "Data", "mass.csv"))
names(mass) <- c("Mass", "Fore", "Bicep", "Chest", "Neck", "Shoulder", "Waist", "Height",
    "Calf", "Thigh", "Head")
mass
~~~
{: .language-r}



~~~
# A tibble: 22 x 11
    Mass  Fore Bicep Chest  Neck Shoulder Waist Height  Calf Thigh  Head
   <dbl> <dbl> <dbl> <dbl> <dbl>    <dbl> <dbl>  <dbl> <dbl> <dbl> <dbl>
 1  77    28.5  33.5   100  38.5      114  85     178   37.5  53    58  
 2  85.5  29.5  36.5   107  39        119  90.5   187   40    52    59  
 3  63    25    31      94  36.5      102  80.5   175   33    49    57  
 4  80.5  28.5  34     104  39        114  91.5   183   38    50    60  
 5  79.5  28.5  36.5   107  39        114  92     174   40    53    59  
 6  94    30.5  38     112  39        121 101     180   39.5  57.5  59  
 7  66    26.5  29      93  35        105  76     178.  38.5  50    58.5
 8  69    27    31      95  37        108  84     182.  36    49    60  
 9  65    26.5  29      93  35        112  74     178.  34    47    55.5
10  58    26.5  31      96  35        103  76     168.  35    46    58  
# ... with 12 more rows
…
