Introduction to Bayesian Statistics
…
He uses a data set that I have saved as chapek9.csv

chapek9<-read_csv("chapek9.csv")

## Parsed with column specification:
## cols(
##   ID = col_double(),
##   species = col_character(),
##   choice = col_character()
## )

chapek9

## # A tibble: 180 x 3
##       ID species choice
##    <dbl> <chr>   <chr> 
##  1     1 robot   flower
##  2     2 human   data  
##  3     3 human   data  
##  4     4 human   data  
##  5     5 robot   data  
##  6     6 human   flower
##  7     7 human   data  
##  8     8 robot   data  
##  9     9 human   puppy 
## 10    10 robot   flower
## # ... with 170 more rows
…
Independent samples t-test

harpo<-read_csv("harpo.csv")

## Parsed with column specification:
## cols(
##   ID = col_double(),
##   grade = col_double(),
##   tutor = col_character()
## )

harpo

## # A tibble: 33 x 3
##       ID grade tutor     
##    <dbl> <dbl> <chr>     
##  1     1    65 Anastasia 
##  2     2    72 Bernadette
##  3     3    66 Bernadette
##  4     4    74 Anastasia 
##  5     5    73 Anastasia 
##  6     6    71 Bernadette
##  7     7    66 Bernadette
##  8     8    76 Bernadette
##  9     9    69 Bernadette
## 10    10    79 Bernadette
## # ... with 23 more rows
…
parenthood<-read_csv("parenthood.csv")

## Parsed with column specification:
## cols(
##   id = col_double(),
##   mySleep = col_double(),
##   babySleep = col_double(),
##   myGrump = col_double(),
##   day = col_double()
## )

parenthood

## # A tibble: 100 x 5
##       id mySleep babySleep myGrump   day
##    <dbl>   <dbl>     <dbl>   <dbl> <dbl>
##  1     1    7.59     10.2       56     1
##  2     2    7.91     11.7       60     2
##  3     3    5.14      7.92      82     3
##  4     4    7.71      9.61      55     4
##  5     5    6.68      9.75      67     5
##  6     6    5.99      5.04      72     6
##  7     7    8.19     10.4       53     7
##  8     8    7.19      8.27      60     8
##  9     9    7.4       6.06      60     9
## 10    10    6.58      7.09      71    10
## # ... with 90 more rows
…
