Day 2 Regression
…
heat_flux<-read_csv("heatflux.csv")

## Parsed with column specification:
## cols(
##   HeatFlux = col_double(),
##   Insulation = col_double(),
##   East = col_double(),
##   South = col_double(),
##   North = col_double(),
##   Time = col_double()
## )

heat_flux

## # A tibble: 29 x 6
##    HeatFlux Insulation  East South North  Time
##       <dbl>      <dbl> <dbl> <dbl> <dbl> <dbl>
##  1     272.       783.  33.5  40.6  16.7  13.2
##  2     264        748.  36.5  36.2  16.5  14.1
##  3     239.       684.  34.7  37.3  17.7  15.7
##  4     231.       828.  33.1  32.5  17.5  10.5
##  5     252.       860.  35.8  33.7  16.4  11  
##  6     258.       875.  34.5  34.1  16.3  11.3
##  7     264.       909.  34.6  34.8  16.1  12.0
##  8     266.       906.  35.4  35.9  15.9  12.6
##  9     229.       756   35.8  33.5  16.6  10.7
## 10     239.       769.  35.7  33.8  16.4  10.8
## # ... with 19 more rows
…
## Parsed with column specification:
## cols(
##   Y = col_double(),
##   X1 = col_double(),
##   X2 = col_double(),
##   X3 = col_double(),
##   X4 = col_double(),
##   X5 = col_double()
## )

squid

## # A tibble: 22 x 6
##        Y    X1    X2    X3    X4    X5
##    <dbl> <dbl> <dbl> <dbl> <dbl> <dbl>
##  1  1.95  1.31  1.07  0.44 0.75  0.35 
##  2  2.9   1.55  1.49  0.53 0.9   0.47 
##  3  0.72  0.99  0.84  0.34 0.570 0.32 
##  4  0.81  0.99  0.83  0.34 0.54  0.27 
##  5  1.09  1.05  0.9   0.36 0.64  0.3  
##  6  1.22  1.09  0.93  0.42 0.61  0.31 
##  7  1.02  1.08  0.9   0.4  0.51  0.31 
##  8  1.93  1.27  1.08  0.44 0.77  0.34 
##  9  0.64  0.99  0.85  0.36 0.56  0.290
## 10  2.08  1.34  1.13  0.45 0.77  0.37 
## # ... with 12 more rows
…
